test_run_dir/3_bits_Adder_should_work/AddernBitModule.vcd
$date
2023-12-29T21:28+0000
$end
$version
0.2
$end
$comment

$end
$timescale 1ns  $end
$scope module AddernBitModule $end
 $var wire 1 ! sum_0 $end
 $var wire 3 " io_B $end
 $var wire 1 & FullAdderModule_2 $end
 $var wire 1 ' carry_1 $end
 $var wire 1 * io_Cin $end
 $var wire 1 - sum_2 $end
 $var wire 3 . io_A $end
 $var wire 1 / clock $end
 $var wire 1 2 FullAdderModule_1 $end
 $var wire 1 3 carry_0 $end
 $var wire 1 4 carry_3 $end
 $var wire 1 6 io_Cout $end
 $var wire 3 9 io_Sum $end
 $var wire 1 : sum_1 $end
 $var wire 1 ; FullAdderModule $end
 $var wire 1 < reset $end
 $var wire 1 = carry_2 $end
 $var wire 2 @ io_Sum_hi $end
  $scope module FullAdderModule_1 $end
   $var wire 1 ) io_cin $end
   $var wire 1 1 io_cout $end
   $var wire 1 8 io_b $end
   $var wire 1 > io_a $end
   $var wire 1 A io_sum $end
  $upscope $end
  $scope module FullAdderModule_2 $end
   $var wire 1 $ io_cin $end
   $var wire 1 % io_a $end
   $var wire 1 ( io_cout $end
   $var wire 1 0 io_sum $end
   $var wire 1 ? io_b $end
  $upscope $end
  $scope module FullAdderModule $end
   $var wire 1 # io_cin $end
   $var wire 1 + io_b $end
   $var wire 1 , io_cout $end
   $var wire 1 5 io_a $end
   $var wire 1 7 io_sum $end
  $upscope $end
$upscope $end
$enddefinitions $end
$dumpvars
0%
0;
0&
0<
0'
0=
0>
06
0!
07
b00 @
b000 .
08
0#
0:
02
03
04
b000 "
05
0-
b000 9
0/
00
0(
01
0)
0?
0*
0+
0A
0,
0$
$end
#0
1<
#1
1/
#6
0<
0/
#11
1/
#16
1!
b001 "
b001 9
1+
17
0/
#21
1/
#26
0!
b010 "
b01 @
18
b010 9
0+
1:
07
0/
1A
#31
1/
#36
1!
b011 "
b011 9
1+
17
0/
#41
1/
#46
0!
10
1?
1-
b100 "
b10 @
08
b100 9
0+
0:
07
0/
0A
#51
1/
#56
1!
b101 "
b101 9
1+
17
0/
#61
1/
#66
0!
b110 "
b11 @
18
b110 9
0+
1:
07
0/
1A
#71
1/
#76
1!
b111 "
b111 9
1+
17
0/
#81
1/
#86
0-
04
b001 .
15
0'
06
0=
0(
17
0/
0)
1!
00
0?
b000 "
01
b00 @
08
b001 9
0$
0+
0:
0A
0,
#91
1/
#96
0!
b001 "
b01 @
1'
b010 9
1+
1:
07
0/
1,
1)
1A
#101
1/
#106
1!
b010 "
18
0'
b011 9
0+
17
0/
0,
0)
#111
1/
#116
1-
1'
1=
07
0/
1)
0!
10
b011 "
11
b10 @
b100 9
1$
1+
0:
0A
1,
#121
1/
#126
0'
0=
17
0/
0)
1!
1?
b100 "
01
08
b101 9
0$
0+
0,
#131
1/
#136
0!
b101 "
b11 @
1'
b110 9
1+
1:
07
0/
1,
1)
1A
#141
1/
#146
1!
b110 "
18
0'
b111 9
0+
17
0/
0,
0)
#151
1/
#156
0-
14
1'
16
1=
1(
07
0/
1)
0!
00
b111 "
11
b00 @
b000 9
1$
1+
0:
0A
1,
#161
1/
#166
04
b010 .
05
0'
06
0=
0(
07
0/
1>
0)
0!
0?
b000 "
01
b01 @
08
b010 9
0$
0+
1:
1A
0,
#171
1/
#176
1!
b001 "
b011 9
1+
17
0/
#181
1/
#186
1-
1=
07
0/
0!
10
b010 "
11
b10 @
18
b100 9
1$
0+
0:
0A
#191
1/
#196
1!
b011 "
b101 9
1+
17
0/
#201
1/
#206
0=
07
0/
0!
1?
b100 "
01
b11 @
08
b110 9
0$
0+
1:
1A
#211
1/
#216
1!
b101 "
b111 9
1+
17
0/
#221
1/
#226
0-
14
16
1=
1(
07
0/
0!
00
b110 "
11
b00 @
18
b000 9
1$
0+
0:
0A
#231
1/
#236
1!
b111 "
b001 9
1+
17
0/
#241
1/
#246
04
b011 .
15
0'
06
0=
0(
17
0/
0)
1!
0?
b000 "
01
b01 @
08
b011 9
0$
0+
1:
1A
0,
#251
1/
#256
1-
1'
1=
07
0/
1)
0!
10
b001 "
11
b10 @
b100 9
1$
1+
0:
0A
1,
#261
1/
#266
1!
b010 "
18
0'
b101 9
0+
17
0/
0,
0)
#271
1/
#276
0!
b011 "
b11 @
1'
b110 9
1+
1:
07
0/
1,
1)
1A
#281
1/
#286
0'
0=
17
0/
0)
1!
1?
b100 "
01
08
b111 9
0$
0+
0,
#291
1/
#296
0-
14
1'
16
1=
1(
07
0/
1)
0!
00
b101 "
11
b00 @
b000 9
1$
1+
0:
0A
1,
#301
1/
#306
1!
b110 "
18
0'
b001 9
0+
17
0/
0,
0)
#311
1/
#316
0!
b111 "
b01 @
1'
b010 9
1+
1:
07
0/
1,
1)
1A
#321
1/
#326
1-
1%
04
b100 .
05
0'
06
0=
0(
07
0/
0>
0)
0!
10
0?
b000 "
01
b10 @
08
b100 9
0$
0+
0:
0A
0,
#331
1/
#336
1!
b001 "
b101 9
1+
17
0/
#341
1/
#346
0!
b010 "
b11 @
18
b110 9
0+
1:
07
0/
1A
#351
1/
#356
1!
b011 "
b111 9
1+
17
0/
#361
1/
#366
0-
14
16
1(
07
0/
0!
00
1?
b100 "
b00 @
08
b000 9
0+
0:
0A
#371
1/
#376
1!
b101 "
b001 9
1+
17
0/
#381
1/
#386
0!
b110 "
b01 @
18
b010 9
0+
1:
07
0/
1A
#391
1/
#396
1!
b111 "
b011 9
1+
17
0/
#401
1/
#406
1-
04
b101 .
15
0'
06
0=
0(
17
0/
0)
1!
10
0?
b000 "
01
b10 @
08
b101 9
0$
0+
0:
0A
0,
#411
1/
#416
0!
b001 "
b11 @
1'
b110 9
1+
1:
07
0/
1,
1)
1A
#421
1/
#426
1!
b010 "
18
0'
b111 9
0+
17
0/
0,
0)
#431
1/
#436
0-
14
1'
16
1=
1(
07
0/
1)
0!
00
b011 "
11
b00 @
b000 9
1$
1+
0:
0A
1,
#441
1/
#446
0'
0=
17
0/
0)
1!
1?
b100 "
01
08
b001 9
0$
0+
0,
#451
1/
#456
0!
b101 "
b01 @
1'
b010 9
1+
1:
07
0/
1,
1)
1A
#461
1/
#466
1!
b110 "
18
0'
b011 9
0+
17
0/
0,
0)
#471
1/
#476
1-
1'
1=
07
0/
1)
0!
10
b111 "
11
b10 @
b100 9
1$
1+
0:
0A
1,
#481
1/
#486
04
b110 .
05
0'
06
0=
0(
07
0/
1>
0)
0!
0?
b000 "
01
b11 @
08
b110 9
0$
0+
1:
1A
0,
#491
1/
#496
1!
b001 "
b111 9
1+
17
0/
#501
1/
#506
0-
14
16
1=
1(
07
0/
0!
00
b010 "
11
b00 @
18
b000 9
1$
0+
0:
0A
#511
1/
#516
1!
b011 "
b001 9
1+
17
0/
#521
1/
#526
0=
07
0/
0!
1?
b100 "
01
b01 @
08
b010 9
0$
0+
1:
1A
#531
1/
#536
1!
b101 "
b011 9
1+
17
0/
#541
1/
#546
1-
1=
07
0/
0!
10
b110 "
11
b10 @
18
b100 9
1$
0+
0:
0A
#551
1/
#556
1!
b111 "
b101 9
1+
17
0/
#561
1/
#566
04
b111 .
15
0'
06
0=
0(
17
0/
0)
1!
0?
b000 "
01
b11 @
08
b111 9
0$
0+
1:
1A
0,
#571
1/
#576
0-
14
1'
16
1=
1(
07
0/
1)
0!
00
b001 "
11
b00 @
b000 9
1$
1+
0:
0A
1,
#581
1/
#586
1!
b010 "
18
0'
b001 9
0+
17
0/
0,
0)
#591
1/
#596
0!
b011 "
b01 @
1'
b010 9
1+
1:
07
0/
1,
1)
1A
#601
1/
#606
0'
0=
17
0/
0)
1!
1?
b100 "
01
08
b011 9
0$
0+
0,
#611
1/
#616
1-
1'
1=
07
0/
1)
0!
10
b101 "
11
b10 @
b100 9
1$
1+
0:
0A
1,
#621
1/
#626
1!
b110 "
18
0'
b101 9
0+
17
0/
0,
0)
#631
1/
#636
0!
b111 "
b11 @
1'
b110 9
1+
1:
07
0/
1,
1)
1A
#641
1/
#646
b000 "
b000 .
0/
