test_run_dir/4_bits_Adder_should_work/Adder4Module.vcd
$date
2023-12-29T19:46+0000
$end
$version
0.2
$end
$comment

$end
$timescale 1ns  $end
$scope module Adder4Module $end
 $var wire 4 # io_B $end
 $var wire 1 % Adder1 $end
 $var wire 3 & s2 $end
 $var wire 2 , s1 $end
 $var wire 1 . Adder3 $end
 $var wire 1 0 io_Cin $end
 $var wire 4 1 io_A $end
 $var wire 1 3 Adder0 $end
 $var wire 1 6 clock $end
 $var wire 1 9 Adder2 $end
 $var wire 1 : io_Cout $end
 $var wire 4 = io_Sum $end
 $var wire 1 @ reset $end
  $scope module Adder2 $end
   $var wire 1 " io_b $end
   $var wire 1 + io_cin $end
   $var wire 1 - io_cout $end
   $var wire 1 / io_a $end
   $var wire 1 ; io_sum $end
  $upscope $end
  $scope module Adder3 $end
   $var wire 1 $ io_cin $end
   $var wire 1 ( io_b $end
   $var wire 1 4 io_a $end
   $var wire 1 5 io_sum $end
   $var wire 1 < io_cout $end
  $upscope $end
  $scope module Adder0 $end
   $var wire 1 ! io_a $end
   $var wire 1 * io_sum $end
   $var wire 1 7 io_b $end
   $var wire 1 ? io_cin $end
   $var wire 1 A io_cout $end
  $upscope $end
  $scope module Adder1 $end
   $var wire 1 ' io_sum $end
   $var wire 1 ) io_a $end
   $var wire 1 2 io_cin $end
   $var wire 1 8 io_cout $end
   $var wire 1 > io_b $end
  $upscope $end
$upscope $end
$enddefinitions $end
$dumpvars
0%
0;
b0000 =
0<
0'
0>
06
0!
b0000 #
07
0"
b000 &
08
09
0:
02
03
04
05
0-
0.
0/
b0000 1
00
0(
0)
0?
0*
0@
0+
b00 ,
0A
0$
$end
#0
1@
#1
16
#6
0@
06
#11
16
#16
b001 &
b0001 #
1*
06
b0001 =
17
b01 ,
#21
16
#26
b010 &
b0010 #
0*
1'
06
b0010 =
07
1>
b10 ,
#31
16
#36
b011 &
b0011 #
1*
06
b0011 =
17
b11 ,
#41
16
#46
1"
b100 &
b0100 #
0*
0'
06
b0100 =
07
0>
1;
b00 ,
#51
16
#56
b101 &
b0101 #
1*
06
b0101 =
17
b01 ,
#61
16
#66
b110 &
b0110 #
0*
1'
06
b0110 =
07
1>
b10 ,
#71
16
#76
b111 &
b0111 #
1*
06
b0111 =
17
b11 ,
#81
16
#86
0"
b000 &
b1000 #
15
0*
0'
06
b1000 =
1(
07
0>
0;
b00 ,
#91
16
#96
b001 &
b1001 #
1*
06
b1001 =
17
b01 ,
#101
16
#106
b010 &
b1010 #
0*
1'
06
b1010 =
07
1>
b10 ,
#111
16
#116
b011 &
b1011 #
1*
06
b1011 =
17
b11 ,
#121
16
#126
1"
b100 &
b1100 #
0*
0'
06
b1100 =
07
0>
1;
b00 ,
#131
16
#136
b101 &
b1101 #
1*
06
b1101 =
17
b01 ,
#141
16
#146
b110 &
b1110 #
0*
1'
06
b1110 =
07
1>
b10 ,
#151
16
#156
b111 &
b1111 #
1*
06
b1111 =
17
b11 ,
#161
16
#166
0-
0<
b001 &
05
0'
06
b0001 =
0(
07
0>
1!
0"
b0001 1
08
b0000 #
02
1*
0$
0+
0:
0A
b01 ,
0;
#171
16
#176
b010 &
b0001 #
12
0*
1'
06
b0010 =
17
1A
b10 ,
#181
16
#186
b011 &
b0010 #
02
1*
06
b0011 =
07
0A
1>
b11 ,
#191
16
#196
18
b0011 #
12
b100 &
0*
0'
06
1+
b0100 =
17
1A
b00 ,
1;
#201
16
#206
1"
08
b0100 #
02
b101 &
1*
06
0+
b0101 =
07
0A
0>
b01 ,
#211
16
#216
b110 &
b0101 #
12
0*
1'
06
b0110 =
17
1A
b10 ,
#221
16
#226
b111 &
b0110 #
02
1*
06
b0111 =
07
0A
1>
b11 ,
#231
16
#236
1-
b000 &
15
0'
06
b1000 =
17
18
b0111 #
12
0*
1$
1+
1A
b00 ,
0;
#241
16
#246
0-
b001 &
06
b1001 =
1(
07
0>
0"
08
b1000 #
02
1*
0$
0+
0A
b01 ,
#251
16
#256
b010 &
b1001 #
12
0*
1'
06
b1010 =
17
1A
b10 ,
#261
16
#266
b011 &
b1010 #
02
1*
06
b1011 =
07
0A
1>
b11 ,
#271
16
#276
18
b1011 #
12
b100 &
0*
0'
06
1+
b1100 =
17
1A
b00 ,
1;
#281
16
#286
1"
08
b1100 #
02
b101 &
1*
06
0+
b1101 =
07
0A
0>
b01 ,
#291
16
#296
b110 &
b1101 #
12
0*
1'
06
b1110 =
17
1A
b10 ,
#301
16
#306
b111 &
b1110 #
02
1*
06
b1111 =
07
0A
1>
b11 ,
#311
16
#316
1-
1<
b000 &
05
0'
06
b0000 =
17
18
b1111 #
12
0*
1$
1+
1:
1A
b00 ,
0;
#321
16
#326
0-
0<
b010 &
1'
06
b0010 =
0(
07
0>
1)
0!
0"
b0010 1
08
b0000 #
02
0*
0$
0+
0:
0A
b10 ,
#331
16
#336
b011 &
b0001 #
1*
06
b0011 =
17
b11 ,
#341
16
#346
18
b0010 #
b100 &
0*
0'
06
1+
b0100 =
07
1>
1;
b00 ,
#351
16
#356
b101 &
b0011 #
1*
06
b0101 =
17
b01 ,
#361
16
#366
1"
08
b0100 #
b110 &
0*
1'
06
0+
b0110 =
07
0>
b10 ,
#371
16
#376
b111 &
b0101 #
1*
06
b0111 =
17
b11 ,
#381
16
#386
1-
b000 &
15
0'
06
b1000 =
07
1>
18
b0110 #
0*
1$
1+
b00 ,
0;
#391
16
#396
b001 &
b0111 #
1*
06
b1001 =
17
b01 ,
#401
16
#406
0-
b010 &
1'
06
b1010 =
1(
07
0>
0"
08
b1000 #
0*
0$
0+
b10 ,
#411
16
#416
b011 &
b1001 #
1*
06
b1011 =
17
b11 ,
#421
16
#426
18
b1010 #
b100 &
0*
0'
06
1+
b1100 =
07
1>
1;
b00 ,
#431
16
#436
b101 &
b1011 #
1*
06
b1101 =
17
b01 ,
#441
16
#446
1"
08
b1100 #
b110 &
0*
1'
06
0+
b1110 =
07
0>
b10 ,
#451
16
#456
b111 &
b1101 #
1*
06
b1111 =
17
b11 ,
#461
16
#466
1-
1<
b000 &
05
0'
06
b0000 =
07
1>
18
b1110 #
0*
1$
1+
1:
b00 ,
0;
#471
16
#476
b001 &
b1111 #
1*
06
b0001 =
17
b01 ,
#481
16
#486
0-
0<
b011 &
1'
06
b0011 =
0(
07
0>
1!
0"
b0011 1
08
b0000 #
02
1*
0$
0+
0:
0A
b11 ,
#491
16
#496
18
b0001 #
12
b100 &
0*
0'
06
1+
b0100 =
17
1A
b00 ,
1;
#501
16
#506
b101 &
b0010 #
02
1*
06
b0101 =
07
0A
1>
b01 ,
#511
16
#516
b110 &
b0011 #
12
0*
1'
06
b0110 =
17
1A
b10 ,
#521
16
#526
1"
08
b0100 #
02
b111 &
1*
06
0+
b0111 =
07
0A
0>
b11 ,
#531
16
#536
1-
b000 &
15
0'
06
b1000 =
17
18
b0101 #
12
0*
1$
1+
1A
b00 ,
0;
#541
16
#546
b001 &
b0110 #
02
1*
06
b1001 =
07
0A
1>
b01 ,
#551
16
#556
b010 &
b0111 #
12
0*
1'
06
b1010 =
17
1A
b10 ,
#561
16
#566
0-
b011 &
06
b1011 =
1(
07
0>
0"
08
b1000 #
02
1*
0$
0+
0A
b11 ,
#571
16
#576
18
b1001 #
12
b100 &
0*
0'
06
1+
b1100 =
17
1A
b00 ,
1;
#581
16
#586
b101 &
b1010 #
02
1*
06
b1101 =
07
0A
1>
b01 ,
#591
16
#596
b110 &
b1011 #
12
0*
1'
06
b1110 =
17
1A
b10 ,
#601
16
#606
1"
08
b1100 #
02
b111 &
1*
06
0+
b1111 =
07
0A
0>
b11 ,
#611
16
#616
1-
1<
b000 &
05
0'
06
b0000 =
17
18
b1101 #
12
0*
1$
1+
1:
1A
b00 ,
0;
#621
16
#626
b001 &
b1110 #
02
1*
06
b0001 =
07
0A
1>
b01 ,
#631
16
#636
b010 &
b1111 #
12
0*
1'
06
b0010 =
17
1A
b10 ,
#641
16
#646
0-
0<
b100 &
0'
06
b0100 =
0(
07
1/
0>
0)
0!
0"
b0100 1
08
b0000 #
02
0*
0$
0+
0:
0A
b00 ,
1;
#651
16
#656
b101 &
b0001 #
1*
06
b0101 =
17
b01 ,
#661
16
#666
b110 &
b0010 #
0*
1'
06
b0110 =
07
1>
b10 ,
#671
16
#676
b111 &
b0011 #
1*
06
b0111 =
17
b11 ,
#681
16
#686
1-
b000 &
15
0'
06
b1000 =
07
0>
1"
b0100 #
0*
1$
b00 ,
0;
#691
16
#696
b001 &
b0101 #
1*
06
b1001 =
17
b01 ,
#701
16
#706
b010 &
b0110 #
0*
1'
06
b1010 =
07
1>
b10 ,
#711
16
#716
b011 &
b0111 #
1*
06
b1011 =
17
b11 ,
#721
16
#726
0-
b100 &
0'
06
b1100 =
1(
07
0>
0"
b1000 #
0*
0$
b00 ,
1;
#731
16
#736
b101 &
b1001 #
1*
06
b1101 =
17
b01 ,
#741
16
#746
b110 &
b1010 #
0*
1'
06
b1110 =
07
1>
b10 ,
#751
16
#756
b111 &
b1011 #
1*
06
b1111 =
17
b11 ,
#761
16
#766
1-
1<
b000 &
05
0'
06
b0000 =
07
0>
1"
b1100 #
0*
1$
1:
b00 ,
0;
#771
16
#776
b001 &
b1101 #
1*
06
b0001 =
17
b01 ,
#781
16
#786
b010 &
b1110 #
0*
1'
06
b0010 =
07
1>
b10 ,
#791
16
#796
b011 &
b1111 #
1*
06
b0011 =
17
b11 ,
#801
16
#806
0-
0<
b101 &
0'
06
b0101 =
0(
07
0>
1!
0"
b0101 1
08
b0000 #
02
1*
0$
0+
0:
0A
b01 ,
1;
#811
16
#816
b110 &
b0001 #
12
0*
1'
06
b0110 =
17
1A
b10 ,
#821
16
#826
b111 &
b0010 #
02
1*
06
b0111 =
07
0A
1>
b11 ,
#831
16
#836
1-
b000 &
15
0'
06
b1000 =
17
18
b0011 #
12
0*
1$
1+
1A
b00 ,
0;
#841
16
#846
1"
08
b0100 #
02
b001 &
1*
06
0+
b1001 =
07
0A
0>
b01 ,
#851
16
#856
b010 &
b0101 #
12
0*
1'
06
b1010 =
17
1A
b10 ,
#861
16
#866
b011 &
b0110 #
02
1*
06
b1011 =
07
0A
1>
b11 ,
#871
16
#876
18
b0111 #
12
b100 &
0*
0'
06
1+
b1100 =
17
1A
b00 ,
1;
#881
16
#886
0-
b101 &
06
b1101 =
1(
07
0>
0"
08
b1000 #
02
1*
0$
0+
0A
b01 ,
#891
16
#896
b110 &
b1001 #
12
0*
1'
06
b1110 =
17
1A
b10 ,
#901
16
#906
b111 &
b1010 #
02
1*
06
b1111 =
07
0A
1>
b11 ,
#911
16
#916
1-
1<
b000 &
05
0'
06
b0000 =
17
18
b1011 #
12
0*
1$
1+
1:
1A
b00 ,
0;
#921
16
#926
1"
08
b1100 #
02
b001 &
1*
06
0+
b0001 =
07
0A
0>
b01 ,
#931
16
#936
b010 &
b1101 #
12
0*
1'
06
b0010 =
17
1A
b10 ,
#941
16
#946
b011 &
b1110 #
02
1*
06
b0011 =
07
0A
1>
b11 ,
#951
16
#956
18
b1111 #
12
b100 &
0*
0'
06
1+
b0100 =
17
1A
b00 ,
1;
#961
16
#966
0-
0<
b110 &
1'
06
b0110 =
0(
07
0>
1)
0!
0"
b0110 1
08
b0000 #
02
0*
0$
0+
0:
0A
b10 ,
#971
16
#976
b111 &
b0001 #
1*
06
b0111 =
17
b11 ,
#981
16
#986
1-
b000 &
15
0'
06
b1000 =
07
1>
18
b0010 #
0*
1$
1+
b00 ,
0;
#991
16
#996
b001 &
b0011 #
1*
06
b1001 =
17
b01 ,
#1001
16
#1006
1"
08
b0100 #
b010 &
0*
1'
06
0+
b1010 =
07
0>
b10 ,
#1011
16
#1016
b011 &
b0101 #
1*
06
b1011 =
17
b11 ,
#1021
16
#1026
18
b0110 #
b100 &
0*
0'
06
1+
b1100 =
07
1>
1;
b00 ,
#1031
16
#1036
b101 &
b0111 #
1*
06
b1101 =
17
b01 ,
#1041
16
#1046
0-
b110 &
1'
06
b1110 =
1(
07
0>
0"
08
b1000 #
0*
0$
0+
b10 ,
#1051
16
#1056
b111 &
b1001 #
1*
06
b1111 =
17
b11 ,
#1061
16
#1066
1-
1<
b000 &
05
0'
06
b0000 =
07
1>
18
b1010 #
0*
1$
1+
1:
b00 ,
0;
#1071
16
#1076
b001 &
b1011 #
1*
06
b0001 =
17
b01 ,
#1081
16
#1086
1"
08
b1100 #
b010 &
0*
1'
06
0+
b0010 =
07
0>
b10 ,
#1091
16
#1096
b011 &
b1101 #
1*
06
b0011 =
17
b11 ,
#1101
16
#1106
18
b1110 #
b100 &
0*
0'
06
1+
b0100 =
07
1>
1;
b00 ,
#1111
16
#1116
b101 &
b1111 #
1*
06
b0101 =
17
b01 ,
#1121
16
#1126
0-
0<
b111 &
1'
06
b0111 =
0(
07
0>
1!
0"
b0111 1
08
b0000 #
02
1*
0$
0+
0:
0A
b11 ,
#1131
16
#1136
1-
b000 &
15
0'
06
b1000 =
17
18
b0001 #
12
0*
1$
1+
1A
b00 ,
0;
#1141
16
#1146
b001 &
b0010 #
02
1*
06
b1001 =
07
0A
1>
b01 ,
#1151
16
#1156
b010 &
b0011 #
12
0*
1'
06
b1010 =
17
1A
b10 ,
#1161
16
#1166
1"
08
b0100 #
02
b011 &
1*
06
0+
b1011 =
07
0A
0>
b11 ,
#1171
16
#1176
18
b0101 #
12
b100 &
0*
0'
06
1+
b1100 =
17
1A
b00 ,
1;
#1181
16
#1186
b101 &
b0110 #
02
1*
06
b1101 =
07
0A
1>
b01 ,
#1191
16
#1196
b110 &
b0111 #
12
0*
1'
06
b1110 =
17
1A
b10 ,
#1201
16
#1206
0-
b111 &
06
b1111 =
1(
07
0>
0"
08
b1000 #
02
1*
0$
0+
0A
b11 ,
#1211
16
#1216
1-
1<
b000 &
05
0'
06
b0000 =
17
18
b1001 #
12
0*
1$
1+
1:
1A
b00 ,
0;
#1221
16
#1226
b001 &
b1010 #
02
1*
06
b0001 =
07
0A
1>
b01 ,
#1231
16
#1236
b010 &
b1011 #
12
0*
1'
06
b0010 =
17
1A
b10 ,
#1241
16
#1246
1"
08
b1100 #
02
b011 &
1*
06
0+
b0011 =
07
0A
0>
b11 ,
#1251
16
#1256
18
b1101 #
12
b100 &
0*
0'
06
1+
b0100 =
17
1A
b00 ,
1;
#1261
16
#1266
b101 &
b1110 #
02
1*
06
b0101 =
07
0A
1>
b01 ,
#1271
16
#1276
b110 &
b1111 #
12
0*
1'
06
b0110 =
17
1A
b10 ,
#1281
16
#1286
0-
0<
14
b000 &
15
0'
06
b1000 =
0(
07
0/
0>
0)
0!
0"
b1000 1
08
b0000 #
02
0*
0$
0+
0:
0A
b00 ,
0;
#1291
16
#1296
b001 &
b0001 #
1*
06
b1001 =
17
b01 ,
#1301
16
#1306
b010 &
b0010 #
0*
1'
06
b1010 =
07
1>
b10 ,
#1311
16
#1316
b011 &
b0011 #
1*
06
b1011 =
17
b11 ,
#1321
16
#1326
1"
b100 &
b0100 #
0*
0'
06
b1100 =
07
0>
1;
b00 ,
#1331
16
#1336
b101 &
b0101 #
1*
06
b1101 =
17
b01 ,
#1341
16
#1346
b110 &
b0110 #
0*
1'
06
b1110 =
07
1>
b10 ,
#1351
16
#1356
b111 &
b0111 #
1*
06
b1111 =
17
b11 ,
#1361
16
#1366
1<
b000 &
05
0'
06
b0000 =
1(
07
0>
0"
b1000 #
0*
1:
b00 ,
0;
#1371
16
#1376
b001 &
b1001 #
1*
06
b0001 =
17
b01 ,
#1381
16
#1386
b010 &
b1010 #
0*
1'
06
b0010 =
07
1>
b10 ,
#1391
16
#1396
b011 &
b1011 #
1*
06
b0011 =
17
b11 ,
#1401
16
#1406
1"
b100 &
b1100 #
0*
0'
06
b0100 =
07
0>
1;
b00 ,
#1411
16
#1416
b101 &
b1101 #
1*
06
b0101 =
17
b01 ,
#1421
16
#1426
b110 &
b1110 #
0*
1'
06
b0110 =
07
1>
b10 ,
#1431
16
#1436
b111 &
b1111 #
1*
06
b0111 =
17
b11 ,
#1441
16
#1446
0-
0<
b001 &
15
0'
06
b1001 =
0(
07
0>
1!
0"
b1001 1
08
b0000 #
02
1*
0$
0+
0:
0A
b01 ,
0;
#1451
16
#1456
b010 &
b0001 #
12
0*
1'
06
b1010 =
17
1A
b10 ,
#1461
16
#1466
b011 &
b0010 #
02
1*
06
b1011 =
07
0A
1>
b11 ,
#1471
16
#1476
18
b0011 #
12
b100 &
0*
0'
06
1+
b1100 =
17
1A
b00 ,
1;
#1481
16
#1486
1"
08
b0100 #
02
b101 &
1*
06
0+
b1101 =
07
0A
0>
b01 ,
#1491
16
#1496
b110 &
b0101 #
12
0*
1'
06
b1110 =
17
1A
b10 ,
#1501
16
#1506
b111 &
b0110 #
02
1*
06
b1111 =
07
0A
1>
b11 ,
#1511
16
#1516
1-
1<
b000 &
05
0'
06
b0000 =
17
18
b0111 #
12
0*
1$
1+
1:
1A
b00 ,
0;
#1521
16
#1526
0-
b001 &
06
b0001 =
1(
07
0>
0"
08
b1000 #
02
1*
0$
0+
0A
b01 ,
#1531
16
#1536
b010 &
b1001 #
12
0*
1'
06
b0010 =
17
1A
b10 ,
#1541
16
#1546
b011 &
b1010 #
02
1*
06
b0011 =
07
0A
1>
b11 ,
#1551
16
#1556
18
b1011 #
12
b100 &
0*
0'
06
1+
b0100 =
17
1A
b00 ,
1;
#1561
16
#1566
1"
08
b1100 #
02
b101 &
1*
06
0+
b0101 =
07
0A
0>
b01 ,
#1571
16
#1576
b110 &
b1101 #
12
0*
1'
06
b0110 =
17
1A
b10 ,
#1581
16
#1586
b111 &
b1110 #
02
1*
06
b0111 =
07
0A
1>
b11 ,
#1591
16
#1596
1-
b000 &
15
0'
06
b1000 =
17
18
b1111 #
12
0*
1$
1+
1A
b00 ,
0;
#1601
16
#1606
0-
0<
b010 &
1'
06
b1010 =
0(
07
0>
1)
0!
0"
b1010 1
08
b0000 #
02
0*
0$
0+
0:
0A
b10 ,
#1611
16
#1616
b011 &
b0001 #
1*
06
b1011 =
17
b11 ,
#1621
16
#1626
18
b0010 #
b100 &
0*
0'
06
1+
b1100 =
07
1>
1;
b00 ,
#1631
16
#1636
b101 &
b0011 #
1*
06
b1101 =
17
b01 ,
#1641
16
#1646
1"
08
b0100 #
b110 &
0*
1'
06
0+
b1110 =
07
0>
b10 ,
#1651
16
#1656
b111 &
b0101 #
1*
06
b1111 =
17
b11 ,
#1661
16
#1666
1-
1<
b000 &
05
0'
06
b0000 =
07
1>
18
b0110 #
0*
1$
1+
1:
b00 ,
0;
#1671
16
#1676
b001 &
b0111 #
1*
06
b0001 =
17
b01 ,
#1681
16
#1686
0-
b010 &
1'
06
b0010 =
1(
07
0>
0"
08
b1000 #
0*
0$
0+
b10 ,
#1691
16
#1696
b011 &
b1001 #
1*
06
b0011 =
17
b11 ,
#1701
16
#1706
18
b1010 #
b100 &
0*
0'
06
1+
b0100 =
07
1>
1;
b00 ,
#1711
16
#1716
b101 &
b1011 #
1*
06
b0101 =
17
b01 ,
#1721
16
#1726
1"
08
b1100 #
b110 &
0*
1'
06
0+
b0110 =
07
0>
b10 ,
#1731
16
#1736
b111 &
b1101 #
1*
06
b0111 =
17
b11 ,
#1741
16
#1746
1-
b000 &
15
0'
06
b1000 =
07
1>
18
b1110 #
0*
1$
1+
b00 ,
0;
#1751
16
#1756
b001 &
b1111 #
1*
06
b1001 =
17
b01 ,
#1761
16
#1766
0-
0<
b011 &
1'
06
b1011 =
0(
07
0>
1!
0"
b1011 1
08
b0000 #
02
1*
0$
0+
0:
0A
b11 ,
#1771
16
#1776
18
b0001 #
12
b100 &
0*
0'
06
1+
b1100 =
17
1A
b00 ,
1;
#1781
16
#1786
b101 &
b0010 #
02
1*
06
b1101 =
07
0A
1>
b01 ,
#1791
16
#1796
b110 &
b0011 #
12
0*
1'
06
b1110 =
17
1A
b10 ,
#1801
16
#1806
1"
08
b0100 #
02
b111 &
1*
06
0+
b1111 =
07
0A
0>
b11 ,
#1811
16
#1816
1-
1<
b000 &
05
0'
06
b0000 =
17
18
b0101 #
12
0*
1$
1+
1:
1A
b00 ,
0;
#1821
16
#1826
b001 &
b0110 #
02
1*
06
b0001 =
07
0A
1>
b01 ,
#1831
16
#1836
b010 &
b0111 #
12
0*
1'
06
b0010 =
17
1A
b10 ,
#1841
16
#1846
0-
b011 &
06
b0011 =
1(
07
0>
0"
08
b1000 #
02
1*
0$
0+
0A
b11 ,
#1851
16
#1856
18
b1001 #
12
b100 &
0*
0'
06
1+
b0100 =
17
1A
b00 ,
1;
#1861
16
#1866
b101 &
b1010 #
02
1*
06
b0101 =
07
0A
1>
b01 ,
#1871
16
#1876
b110 &
b1011 #
12
0*
1'
06
b0110 =
17
1A
b10 ,
#1881
16
#1886
1"
08
b1100 #
02
b111 &
1*
06
0+
b0111 =
07
0A
0>
b11 ,
#1891
16
#1896
1-
b000 &
15
0'
06
b1000 =
17
18
b1101 #
12
0*
1$
1+
1A
b00 ,
0;
#1901
16
#1906
b001 &
b1110 #
02
1*
06
b1001 =
07
0A
1>
b01 ,
#1911
16
#1916
b010 &
b1111 #
12
0*
1'
06
b1010 =
17
1A
b10 ,
#1921
16
#1926
0-
0<
b100 &
0'
06
b1100 =
0(
07
1/
0>
0)
0!
0"
b1100 1
08
b0000 #
02
0*
0$
0+
0:
0A
b00 ,
1;
#1931
16
#1936
b101 &
b0001 #
1*
06
b1101 =
17
b01 ,
#1941
16
#1946
b110 &
b0010 #
0*
1'
06
b1110 =
07
1>
b10 ,
#1951
16
#1956
b111 &
b0011 #
1*
06
b1111 =
17
b11 ,
#1961
16
#1966
1-
1<
b000 &
05
0'
06
b0000 =
07
0>
1"
b0100 #
0*
1$
1:
b00 ,
0;
#1971
16
#1976
b001 &
b0101 #
1*
06
b0001 =
17
b01 ,
#1981
16
#1986
b010 &
b0110 #
0*
1'
06
b0010 =
07
1>
b10 ,
#1991
16
#1996
b011 &
b0111 #
1*
06
b0011 =
17
b11 ,
#2001
16
#2006
0-
b100 &
0'
06
b0100 =
1(
07
0>
0"
b1000 #
0*
0$
b00 ,
1;
#2011
16
#2016
b101 &
b1001 #
1*
06
b0101 =
17
b01 ,
#2021
16
#2026
b110 &
b1010 #
0*
1'
06
b0110 =
07
1>
b10 ,
#2031
16
#2036
b111 &
b1011 #
1*
06
b0111 =
17
b11 ,
#2041
16
#2046
1-
b000 &
15
0'
06
b1000 =
07
0>
1"
b1100 #
0*
1$
b00 ,
0;
#2051
16
#2056
b001 &
b1101 #
1*
06
b1001 =
17
b01 ,
#2061
16
#2066
b010 &
b1110 #
0*
1'
06
b1010 =
07
1>
b10 ,
#2071
16
#2076
b011 &
b1111 #
1*
06
b1011 =
17
b11 ,
#2081
16
#2086
0-
0<
b101 &
0'
06
b1101 =
0(
07
0>
1!
0"
b1101 1
08
b0000 #
02
1*
0$
0+
0:
0A
b01 ,
1;
#2091
16
#2096
b110 &
b0001 #
12
0*
1'
06
b1110 =
17
1A
b10 ,
#2101
16
#2106
b111 &
b0010 #
02
1*
06
b1111 =
07
0A
1>
b11 ,
#2111
16
#2116
1-
1<
b000 &
05
0'
06
b0000 =
17
18
b0011 #
12
0*
1$
1+
1:
1A
b00 ,
0;
#2121
16
#2126
1"
08
b0100 #
02
b001 &
1*
06
0+
b0001 =
07
0A
0>
b01 ,
#2131
16
#2136
b010 &
b0101 #
12
0*
1'
06
b0010 =
17
1A
b10 ,
#2141
16
#2146
b011 &
b0110 #
02
1*
06
b0011 =
07
0A
1>
b11 ,
#2151
16
#2156
18
b0111 #
12
b100 &
0*
0'
06
1+
b0100 =
17
1A
b00 ,
1;
#2161
16
#2166
0-
b101 &
06
b0101 =
1(
07
0>
0"
08
b1000 #
02
1*
0$
0+
0A
b01 ,
#2171
16
#2176
b110 &
b1001 #
12
0*
1'
06
b0110 =
17
1A
b10 ,
#2181
16
#2186
b111 &
b1010 #
02
1*
06
b0111 =
07
0A
1>
b11 ,
#2191
16
#2196
1-
b000 &
15
0'
06
b1000 =
17
18
b1011 #
12
0*
1$
1+
1A
b00 ,
0;
#2201
16
#2206
1"
08
b1100 #
02
b001 &
1*
06
0+
b1001 =
07
0A
0>
b01 ,
#2211
16
#2216
b010 &
b1101 #
12
0*
1'
06
b1010 =
17
1A
b10 ,
#2221
16
#2226
b011 &
b1110 #
02
1*
06
b1011 =
07
0A
1>
b11 ,
#2231
16
#2236
18
b1111 #
12
b100 &
0*
0'
06
1+
b1100 =
17
1A
b00 ,
1;
#2241
16
#2246
0-
0<
b110 &
1'
06
b1110 =
0(
07
0>
1)
0!
0"
b1110 1
08
b0000 #
02
0*
0$
0+
0:
0A
b10 ,
#2251
16
#2256
b111 &
b0001 #
1*
06
b1111 =
17
b11 ,
#2261
16
#2266
1-
1<
b000 &
05
0'
06
b0000 =
07
1>
18
b0010 #
0*
1$
1+
1:
b00 ,
0;
#2271
16
#2276
b001 &
b0011 #
1*
06
b0001 =
17
b01 ,
#2281
16
#2286
1"
08
b0100 #
b010 &
0*
1'
06
0+
b0010 =
07
0>
b10 ,
#2291
16
#2296
b011 &
b0101 #
1*
06
b0011 =
17
b11 ,
#2301
16
#2306
18
b0110 #
b100 &
0*
0'
06
1+
b0100 =
07
1>
1;
b00 ,
#2311
16
#2316
b101 &
b0111 #
1*
06
b0101 =
17
b01 ,
#2321
16
#2326
0-
b110 &
1'
06
b0110 =
1(
07
0>
0"
08
b1000 #
0*
0$
0+
b10 ,
#2331
16
#2336
b111 &
b1001 #
1*
06
b0111 =
17
b11 ,
#2341
16
#2346
1-
b000 &
15
0'
06
b1000 =
07
1>
18
b1010 #
0*
1$
1+
b00 ,
0;
#2351
16
#2356
b001 &
b1011 #
1*
06
b1001 =
17
b01 ,
#2361
16
#2366
1"
08
b1100 #
b010 &
0*
1'
06
0+
b1010 =
07
0>
b10 ,
#2371
16
#2376
b011 &
b1101 #
1*
06
b1011 =
17
b11 ,
#2381
16
#2386
18
b1110 #
b100 &
0*
0'
06
1+
b1100 =
07
1>
1;
b00 ,
#2391
16
#2396
b101 &
b1111 #
1*
06
b1101 =
17
b01 ,
#2401
16
#2406
0-
0<
b111 &
1'
06
b1111 =
0(
07
0>
1!
0"
b1111 1
08
b0000 #
02
1*
0$
0+
0:
0A
b11 ,
#2411
16
#2416
1-
1<
b000 &
05
0'
06
b0000 =
17
18
b0001 #
12
0*
1$
1+
1:
1A
b00 ,
0;
#2421
16
#2426
b001 &
b0010 #
02
1*
06
b0001 =
07
0A
1>
b01 ,
#2431
16
#2436
b010 &
b0011 #
12
0*
1'
06
b0010 =
17
1A
b10 ,
#2441
16
#2446
1"
08
b0100 #
02
b011 &
1*
06
0+
b0011 =
07
0A
0>
b11 ,
#2451
16
#2456
18
b0101 #
12
b100 &
0*
0'
06
1+
b0100 =
17
1A
b00 ,
1;
#2461
16
#2466
b101 &
b0110 #
02
1*
06
b0101 =
07
0A
1>
b01 ,
#2471
16
#2476
b110 &
b0111 #
12
0*
1'
06
b0110 =
17
1A
b10 ,
#2481
16
#2486
0-
b111 &
06
b0111 =
1(
07
0>
0"
08
b1000 #
02
1*
0$
0+
0A
b11 ,
#2491
16
#2496
1-
b000 &
15
0'
06
b1000 =
17
18
b1001 #
12
0*
1$
1+
1A
b00 ,
0;
#2501
16
#2506
b001 &
b1010 #
02
1*
06
b1001 =
07
0A
1>
b01 ,
#2511
16
#2516
b010 &
b1011 #
12
0*
1'
06
b1010 =
17
1A
b10 ,
#2521
16
#2526
1"
08
b1100 #
02
b011 &
1*
06
0+
b1011 =
07
0A
0>
b11 ,
#2531
16
#2536
18
b1101 #
12
b100 &
0*
0'
06
1+
b1100 =
17
1A
b00 ,
1;
#2541
16
#2546
b101 &
b1110 #
02
1*
06
b1101 =
07
0A
1>
b01 ,
#2551
16
#2556
b110 &
b1111 #
12
0*
1'
06
b1110 =
17
1A
b10 ,
#2561
16
#2566
b0000 1
b0000 #
06
